9  
Ethanol
C     -0.231579   -0.350841   -0.037475
C      0.229441    0.373160    1.224850
O      0.868228   -0.551628    2.114423
H      0.619613   -0.833754   -0.565710
H     -0.709445    0.352087   -0.754607
H     -0.976393   -1.144198    0.191635
H     -0.628785    0.860022    1.736350
H      0.952253    1.174538    0.962081
H      0.204846   -1.119563    2.483509
